Data formats
…
Assign the created data frame to an object with the name waste_data_long_mean.

waste_data_long_mean <- waste_data_long |> 
  group_by(income_cat, waste_category) |> 
  summarise(mean_percent = mean(percent))

Task 3: Table display

Starting with the waste_data_long_mean object, execute the code and observe the output in the Console. Would you publish this table in this format in a report?

Nope. Variable names are not stored as column names.

waste_data_long_mean

# A tibble: 36 × 3
# Groups:   income_cat [4]
   income_cat          waste_category          mean_percent
   <fct>               <chr>                          <dbl>
 1 high income         food_organic_waste             32.8 
 2 high income         glass                           6.12
 3 high income         metal                           5.13
 4 high income         other                          16.8 
 5 high income         paper_cardboard                21.3 
 6 high income         plastic                        12.4 
 7 high income         rubber_leather                  2.98
 8 high income         wood                            5.54
 9 high income         yard_garden_green_waste         9.31
10 upper-middle income food_organic_waste             45.4 
# ℹ 26 more rows
…
